{"messages":{"total":20880,"pages":418,"currentPage":1,"records":[{"id":"cm93f24ms61gtrv54iqyyzj11","key":{"id":"3A204A76FF27500828FE","fromMe":false,"remoteJid":"5511948333534@s.whatsapp.net"},"pushName":"Erick Torres","messageType":"conversation","message":{"conversation":"Aaaaa","messageContextInfo":{"messageSecret":"9yRBIeSQTNGUmLBqSScDnjye6jEzVawliy3OaPzClRw=","deviceListMetadata":{"senderKeyHash":"J5QEZhW0oCLHmQ==","senderTimestamp":"1743427193","recipientKeyHash":"wALcSzC+aRuOGg==","recipientTimestamp":"1743790487"},"deviceListMetadataVersion":2}},"messageTimestamp":1743809343,"instanceId":"a471bc36-6909-4459-8656-7f8d020504b5","source":"ios","contextInfo":null,"MessageUpdate":[]},{"id":"cm93f04b361gfrv5409jujfqn","key":{"id":"3A0D52984972B23778E0","fromMe":false,"remoteJid":"5511948333534@s.whatsapp.net"},"pushName":"Erick Torres","messageType":"conversation","message":{"conversation":"oi","messageContextInfo":{"messageSecret":"9ly/Amqavmc7SI441zOilyeM42IFgw2/IIU9mM0ktUo=","deviceListMetadata":{"senderKeyHash":"J5QEZhW0oCLHmQ==","senderTimestamp":"1743427193","recipientKeyHash":"wALcSzC+aRuOGg==","recipientTimestamp":"1743790487"},"deviceListMetadataVersion":2}},"messageTimestamp":1743809249,"instanceId":"a471bc36-6909-4459-8656-7f8d020504b5","source":"ios","contextInfo":null,"MessageUpdate":[]},{"id":"cm93f02r161g1rv54fs323xou","key":{"id":"3AB397F68C0802FC2E0B","fromMe":false,"remoteJid":"5511948333534@s.whatsapp.net"},"pushName":"Erick Torres","messageType":"conversation","message":{"conversation":"Oi","messageContextInfo":{"messageSecret":"60XJHZh6yOEpPlMKxfxwCI8DaVLcfYBUQRvBQHZv0+Y=","deviceListMetadata":{"senderKeyHash":"J5QEZhW0oCLHmQ==","senderTimestamp":"1743427193","recipientKeyHash":"wALcSzC+aRuOGg==","recipientTimestamp":"1743790487"},"deviceListMetadataVersion":2}},"messageTimestamp":1743809247,"instanceId":"a471bc36-6909-4459-8656-7f8d020504b5","source":"ios","contextInfo":null,"MessageUpdate":[]},{"id":"cm93ezov561fnrv54m9c38xpc","key":{"id":"3A08656D25BEDC023892","fromMe":false,"remoteJid":"5511948333534@s.whatsapp.net"},"pushName":"Erick Torres","messageType":"conversation","message":{"conversation":"oi","messageContextInfo":{"messageSecret":"kJ55uDm+GIEMZA/qLPBdpDrRKfJAXHA/CfwaSyw9at4=","deviceListMetadata":{"senderKeyHash":"J5QEZhW0oCLHmQ==","senderTimestamp":"1743427193","recipientKeyHash":"wALcSzC+aRuOGg==","recipientTimestamp":"1743790487"},"deviceListMetadataVersion":2}},"messageTimestamp":1743809229,"instanceId":"a471bc36-6909-4459-8656-7f8d020504b5","source":"ios","contextInfo":null,"MessageUpdate":[]},{"id":"cm93eub5p61f9rv54u33mxr1l","key":{"id":"3A4968FA0D44DB0533CC","fromMe":false,"remoteJid":"5511948333534@s.whatsapp.net"},"pushName":"Erick Torres","messageType":"conversation","message":{"conversation":"Quero falar oi","messageContextInfo":{"messageSecret":"cgjCY+ujMDsFO8lqx7cUE/gutLBhWJ0JSeRpNlk0qug=","deviceListMetadata":{"senderKeyHash":"J5QEZhW0oCLHmQ==","senderTimestamp":"1743427193","recipientKeyHash":"wALcSzC+aRuOGg==","recipientTimestamp":"1743790487"},"deviceListMetadataVersion":2}},"messageTimestamp":1743808978,"instanceId":"a471bc36-6909-4459-8656-7f8d020504b5","source":"ios","contextInfo":null,"MessageUpdate":[]},{"id":"cm93eu7rp61evrv5407qph354","key":{"id":"3AB97DAE6E190FFEDDCE","fromMe":false,"remoteJid":"5511948333534@s.whatsapp.net"},"pushName":"Erick Torres","messageType":"conversation","message":{"conversation":"Olá","messageContextInfo":{"messageSecret":"u5zHq1gwkx8YUIQTSpRVzfDPQhPI8sUDwiH7Uwh4vbM=","deviceListMetadata":{"senderKeyHash":"J5QEZhW0oCLHmQ==","senderTimestamp":"1743427193","recipientKeyHash":"wALcSzC+aRuOGg==","recipientTimestamp":"1743790487"},"deviceListMetadataVersion":2}},"messageTimestamp":1743808973,"instanceId":"a471bc36-6909-4459-8656-7f8d020504b5","source":"ios","contextInfo":null,"MessageUpdate":[]},{"id":"cm93eam8461dnrv54s4vg07ns","key":{"id":"3AB9C6E8AC38000E8EAC","fromMe":false,"remoteJid":"5511948333534@s.whatsapp.net"},"pushName":"Erick Torres","messageType":"conversation","message":{"conversation":"oi quero enviar","messageContextInfo":{"messageSecret":"DnWMUVLDilyEZxW+mjV4cBiwXuaA8aiRZAw8MEl/fgM=","deviceListMetadata":{"senderKeyHash":"J5QEZhW0oCLHmQ==","senderTimestamp":"1743427193","recipientKeyHash":"wALcSzC+aRuOGg==","recipientTimestamp":"1743790487"},"deviceListMetadataVersion":2}},"messageTimestamp":1743808059,"instanceId":"a471bc36-6909-4459-8656-7f8d020504b5","source":"ios","contextInfo":null,"MessageUpdate":[]},{"id":"cm93eairc61d9rv54rizzvh3p","key":{"id":"3A89B076F33C51B4DD51","fromMe":false,"remoteJid":"5511948333534@s.whatsapp.net"},"pushName":"Erick Torres","messageType":"conversation","message":{"conversation":"oi","messageContextInfo":{"messageSecret":"0tQpsaiY2botVvBeIqunSYpdZoB3zckNzu1UtcovzKg=","deviceListMetadata":{"senderKeyHash":"J5QEZhW0oCLHmQ==","senderTimestamp":"1743427193","recipientKeyHash":"wALcSzC+aRuOGg==","recipientTimestamp":"1743790487"},"deviceListMetadataVersion":2}},"messageTimestamp":1743808054,"instanceId":"a471bc36-6909-4459-8656-7f8d020504b5","source":"ios","contextInfo":null,"MessageUpdate":[]},{"id":"cm93a80qz5t73rv543at9m3vr","key":{"id":"3A948C117E5A24734DCF","fromMe":false,"remoteJid":"5511948333534@s.whatsapp.net"},"pushName":"Erick Torres","messageType":"conversation","message":{"conversation":"oi","messageContextInfo":{"messageSecret":"DKscmyEkktv/TQ2kPnXLEXDmppta7vYjh2laHMbS/o0=","deviceListMetadata":{"senderKeyHash":"J5QEZhW0oCLHmQ==","senderTimestamp":"1743427193","recipientKeyHash":"wALcSzC+aRuOGg==","recipientTimestamp":"1743790487"},"deviceListMetadataVersion":2}},"messageTimestamp":1743801219,"instanceId":"a471bc36-6909-4459-8656-7f8d020504b5","source":"ios","contextInfo":null,"MessageUpdate":[]},{"id":"cm93a0u095hpyrv547r1urkje","key":{"id":"3A6AADC23B4362AFE6A3","fromMe":false,"remoteJid":"5511948333534@s.whatsapp.net"},"pushName":"","messageType":"conversation","message":{"conversation":"ola","messageContextInfo":{"messageSecret":"eAHZBaqSEVInCIzQmmRkRWJWzrf0QH1RhxPNr+ttnNk="}},"messageTimestamp":1743799341,"instanceId":"a471bc36-6909-4459-8656-7f8d020504b5","source":"ios","contextInfo":null,"MessageUpdate":[]},{"id":"cm93a0u095hpzrv54sbzwbj56","key":{"id":"3A628149CD7B41EE89EC","fromMe":false,"remoteJid":"5511948333534@s.whatsapp.net"},"pushName":"","messageType":"conversation","message":{"conversation":"o1","messageContextInfo":{"messageSecret":"+/uV8WpRa1wKPiDp7nxHHukU8laewp+wQPLfnOsv2rY="}},"messageTimestamp":1743799332,"instanceId":"a471bc36-6909-4459-8656-7f8d020504b5","source":"ios","contextInfo":null,"MessageUpdate":[]},{"id":"cm93a0u095hq0rv54lx999yws","key":{"id":"3A43A690B6DCDC8A39F8","fromMe":false,"remoteJid":"5511948333534@s.whatsapp.net"},"pushName":"","messageType":"conversation","message":{"conversation":"ola","messageContextInfo":{"messageSecret":"/jGswRvNQewbe3BD7tMfTluT61jUBN1tIojUuG0X7NM="}},"messageTimestamp":1743799140,"instanceId":"a471bc36-6909-4459-8656-7f8d020504b5","source":"ios","contextInfo":null,"MessageUpdate":[]},{"id":"cm93a0u095hq1rv54zb3n0w5i","key":{"id":"3A398554C9E28381892F","fromMe":false,"remoteJid":"5511948333534@s.whatsapp.net"},"pushName":"","messageType":"conversation","message":{"conversation":"ola","messageContextInfo":{"messageSecret":"XhxV++ku8+CD7XJcXYweGc50OcXdOzcnu+aB7H6luho="}},"messageTimestamp":1743798354,"instanceId":"a471bc36-6909-4459-8656-7f8d020504b5","source":"ios","contextInfo":null,"MessageUpdate":[]},{"id":"cm93a0u095hq2rv547novm6gj","key":{"id":"3AA70100D3FAB88CE62C","fromMe":false,"remoteJid":"5511948333534@s.whatsapp.net"},"pushName":"","messageType":"conversation","message":{"conversation":"ola","messageContextInfo":{"messageSecret":"9pzhC7ktizcY+wqZ4yyJ5Izm5EecmMk7o1fIgmhYLdk="}},"messageTimestamp":1743797918,"instanceId":"a471bc36-6909-4459-8656-7f8d020504b5","source":"ios","contextInfo":null,"MessageUpdate":[]},{"id":"cm93a0u095hq3rv54ktagtaln","key":{"id":"3A70FECE4EA3C9866508","fromMe":false,"remoteJid":"5511948333534@s.whatsapp.net"},"pushName":"","messageType":"conversation","message":{"conversation":"ola","messageContextInfo":{"messageSecret":"LSda6ZYEkst/KdCNk8CeeCJg9XY5yTXGCiaPBtmFAqQ="}},"messageTimestamp":1743797915,"instanceId":"a471bc36-6909-4459-8656-7f8d020504b5","source":"ios","contextInfo":null,"MessageUpdate":[]},{"id":"cm93a0u095hq4rv54kerf89sv","key":{"id":"3AEFCC05B9B9F3B29230","fromMe":false,"remoteJid":"5511948333534@s.whatsapp.net"},"pushName":"","messageType":"conversation","message":{"conversation":"o1","messageContextInfo":{"messageSecret":"qh/wwWD83yh3SUJ4IUNy4S53C9CVgDkH7VaFBlxtHNU="}},"messageTimestamp":1743797844,"instanceId":"a471bc36-6909-4459-8656-7f8d020504b5","source":"ios","contextInfo":null,"MessageUpdate":[]},{"id":"cm93a0u095hq5rv54zwgdpyua","key":{"id":"3AFA50D6CF2B3FBCBD5E","fromMe":false,"remoteJid":"5511948333534@s.whatsapp.net"},"pushName":"","messageType":"conversation","message":{"conversation":"o1","messageContextInfo":{"messageSecret":"Qy5u0S6UhR4HTQ1FL0l0zf2KsXC/LlegjM67PTiuSMA="}},"messageTimestamp":1743797237,"instanceId":"a471bc36-6909-4459-8656-7f8d020504b5","source":"ios","contextInfo":null,"MessageUpdate":[]},{"id":"cm93a0u095hq6rv54at261o4x","key":{"id":"3A26E88B9EF0750C36AC","fromMe":false,"remoteJid":"5511948333534@s.whatsapp.net"},"pushName":"","messageType":"conversation","message":{"conversation":"o1","messageContextInfo":{"messageSecret":"JoSeDVlft0wXflg5PCOcHUb9+TMs/HMXhxdotM1+Q1Y="}},"messageTimestamp":1743791985,"instanceId":"a471bc36-6909-4459-8656-7f8d020504b5","source":"ios","contextInfo":null,"MessageUpdate":[]},{"id":"cm93a0u095hq7rv54vqub11ov","key":{"id":"3A01D80F7F7AA00A6E7C","fromMe":false,"remoteJid":"5511948333534@s.whatsapp.net"},"pushName":"","messageType":"conversation","message":{"conversation":"o1","messageContextInfo":{"messageSecret":"wi0KGI7DlnGLeH6XWWgYiS05+hI27pQxbr6Q0AfV1Fc="}},"messageTimestamp":1743791652,"instanceId":"a471bc36-6909-4459-8656-7f8d020504b5","source":"ios","contextInfo":null,"MessageUpdate":[]},{"id":"cm93a0u0a5hqdrv543ygdqdg8","key":{"id":"3EB06D539B7FDC339E482F","fromMe":true,"remoteJid":"558596466038@s.whatsapp.net"},"pushName":"","messageType":"conversation","message":{"conversation":"encerrando a conversa, por falta de atividade.","messageContextInfo":{"messageSecret":"9J9VoZ6ZaUa+aoVc0G7+ibzNi2C6lhBfbBr7JYNiTk4="}},"messageTimestamp":1743789505,"instanceId":"a471bc36-6909-4459-8656-7f8d020504b5","source":"web","contextInfo":null,"MessageUpdate":[]},{"id":"cm93a0u0a5hqerv54ahc5odau","key":{"id":"3EB084A199EACFE96014A9","fromMe":true,"remoteJid":"558596466038@s.whatsapp.net"},"pushName":"","messageType":"conversation","message":{"conversation":"nao amigo","messageContextInfo":{"messageSecret":"eSr4JKdXM7H/ZekLMrV5tRj2CCMrW1RqWAqYiviW9pc="}},"messageTimestamp":1743789155,"instanceId":"a471bc36-6909-4459-8656-7f8d020504b5","source":"web","contextInfo":null,"MessageUpdate":[]},{"id":"cm93a0u0a5hqfrv54qqlk9xd0","key":{"id":"4EF08E1894B81E8E8C99956543D9699D","fromMe":false,"remoteJid":"558596466038@s.whatsapp.net"},"pushName":"","messageType":"conversation","message":{"conversation":"Tenho docs para verificação faz parceria ?","messageContextInfo":{"messageSecret":"G35N+2hyp7z3DK9lUADQehWuqruBMDjZ2tdklXA2dOU="}},"messageTimestamp":1743789138,"instanceId":"a471bc36-6909-4459-8656-7f8d020504b5","source":"android","contextInfo":null,"MessageUpdate":[]},{"id":"cm93a0u0a5hqgrv54x6no84k0","key":{"id":"F65672445D03F25B327CF6478597D713","fromMe":false,"remoteJid":"558596466038@s.whatsapp.net"},"pushName":"","messageType":"conversation","message":{"conversation":"Certo","messageContextInfo":{"messageSecret":"8BaQCLbv7UPcOByd6kzBNRgsD8FgUojbGFg23a0wJZg="}},"messageTimestamp":1743789125,"instanceId":"a471bc36-6909-4459-8656-7f8d020504b5","source":"android","contextInfo":null,"MessageUpdate":[]},{"id":"cm93a0u0a5hqhrv54bx9j496s","key":{"id":"3EB04F9950802D1B2166A4","fromMe":true,"remoteJid":"558596466038@s.whatsapp.net"},"pushName":"","messageType":"conversation","message":{"conversation":"alternativas é com outros perfis","messageContextInfo":{"messageSecret":"/05xBlZQI28A+M39LKAKxL3ypgaAwTk/5ll1HIeHVfI="}},"messageTimestamp":1743789089,"instanceId":"a471bc36-6909-4459-8656-7f8d020504b5","source":"web","contextInfo":null,"MessageUpdate":[]},{"id":"cm93a0u0a5hqirv54tzyqtehu","key":{"id":"EC75AC4F3CAF4DBAB5C1045A27482976","fromMe":false,"remoteJid":"558596466038@s.whatsapp.net"},"pushName":"","messageType":"conversation","message":{"conversation":"Certo","messageContextInfo":{"messageSecret":"bxDGyPZ5bWhmaidf3i0xcN0LchdbwHZVJxxL8ScUtiY="}},"messageTimestamp":1743789080,"instanceId":"a471bc36-6909-4459-8656-7f8d020504b5","source":"android","contextInfo":{"stanzaId":"3EB00B0B3B7199B16F9A44","participant":"5511930070320@s.whatsapp.net","quotedMessage":{"conversation":"quando cai dificil volta."}},"MessageUpdate":[]},{"id":"cm93a0u0a5hqjrv54wsb8ayzd","key":{"id":"83461555CD00C4A3FCFAF7366C7C8760","fromMe":false,"remoteJid":"558596466038@s.whatsapp.net"},"pushName":"","messageType":"conversation","message":{"conversation":"Fui desativado consegue reativar meu perfil?","messageContextInfo":{"messageSecret":"5PzdZdQean8IyIyiYRfGavk5HRnnvs7R84ligA17Xgs="}},"messageTimestamp":1743789066,"instanceId":"a471bc36-6909-4459-8656-7f8d020504b5","source":"android","contextInfo":null,"MessageUpdate":[]},{"id":"cm93a0u0a5hqkrv54xnuku05s","key":{"id":"3EB00B0B3B7199B16F9A44","fromMe":true,"remoteJid":"558596466038@s.whatsapp.net"},"pushName":"","messageType":"conversation","message":{"conversation":"quando cai dificil volta.","messageContextInfo":{"messageSecret":"N/HTBhVyGa1OlbErVhVtGAd5fomo4ce4+SB5EYgbTTo="}},"messageTimestamp":1743789065,"instanceId":"a471bc36-6909-4459-8656-7f8d020504b5","source":"web","contextInfo":null,"MessageUpdate":[]},{"id":"cm93a0u0a5hqlrv540z86upnl","key":{"id":"39F85ED453CD4645686F70835B7CFF50","fromMe":false,"remoteJid":"558596466038@s.whatsapp.net"},"pushName":"","messageType":"conversation","message":{"conversation":"Você consegue restabelecer meu Facebook ?","messageContextInfo":{"messageSecret":"9rW8cPSlu0PH5vHBBpU0FM78KNRBAORcAmtFaJgQW8Y="}},"messageTimestamp":1743789052,"instanceId":"a471bc36-6909-4459-8656-7f8d020504b5","source":"android","contextInfo":null,"MessageUpdate":[]},{"id":"cm93a0u0a5hqmrv54qce2bnvs","key":{"id":"3EB0FB6BD7C10E2F4ADC1FC351FF8641799132FB","fromMe":true,"remoteJid":"558596466038@s.whatsapp.net"},"pushName":"","messageType":"conversation","message":{"conversation":"Qual perfil voce procura, caso precise posso ajudar."},"messageTimestamp":1743789019,"instanceId":"a471bc36-6909-4459-8656-7f8d020504b5","source":"unknown","contextInfo":null,"MessageUpdate":[]},{"id":"cm93a0u0a5hqnrv54a1ezgrlh","key":{"id":"3EB00B671647C353ADE5145B605E1D806C2768ED","fromMe":true,"remoteJid":"558596466038@s.whatsapp.net"},"pushName":"","messageType":"conversation","message":{"conversation":"qual sua operacao?"},"messageTimestamp":1743789018,"instanceId":"a471bc36-6909-4459-8656-7f8d020504b5","source":"unknown","contextInfo":null,"MessageUpdate":[]},{"id":"cm93a0u0a5hqorv54kmpmvwba","key":{"id":"3EB06BB4F5A3EBA7066299B86005DBFB737984BC","fromMe":true,"remoteJid":"558596466038@s.whatsapp.net"},"pushName":"","messageType":"imageMessage","message":{"imageMessage":{"url":"https://mmg.whatsapp.net/o1/v/t62.7118-24/f2/m232/AQN0oOIfWH0f6UDmoFh3FrRKwOHDfYADahJr8ga39CkqttcH2IAx0yTyUQ8NNgoRHOz8nSDuDgkCNDDd9gJL5kJQ-wrUr302hFRg5O-arQ?ccb=9-4&oh=01_Q5AaIW1wA3dRbKdwFnDjTMJMOKWeVgJOG5bBItXGScGPpp9d&oe=68177C94&_nc_sid=e6ed6c&mms3=true","width":1280,"height":629,"mediaKey":"B00Db0jwD3vCS3MnWJPzBRq3pAcSVay8lifRwhhKdvM=","mimetype":"image/png","directPath":"/o1/v/t62.7118-24/f2/m232/AQN0oOIfWH0f6UDmoFh3FrRKwOHDfYADahJr8ga39CkqttcH2IAx0yTyUQ8NNgoRHOz8nSDuDgkCNDDd9gJL5kJQ-wrUr302hFRg5O-arQ?ccb=9-4&oh=01_Q5AaIW1wA3dRbKdwFnDjTMJMOKWeVgJOG5bBItXGScGPpp9d&oe=68177C94&_nc_sid=e6ed6c","fileLength":"275906","fileSha256":"SMvVlqRXqCmZhrCq9i+uHnnruAjlg3xZaK7UmFrQZME=","fileEncSha256":"b7/6qw/X4ALdlHBTFAu8QxYbEczWecL10mjT3Q3kFQg=","mediaKeyTimestamp":"1743788966"}},"messageTimestamp":1743788967,"instanceId":"a471bc36-6909-4459-8656-7f8d020504b5","source":"unknown","contextInfo":null,"MessageUpdate":[]},{"id":"cm93a0u0a5hqprv54oxdpfibf","key":{"id":"3EB007ACE43FDB3D276806DC9FBD4AF06B7AAA7C","fromMe":true,"remoteJid":"558596466038@s.whatsapp.net"},"pushName":"","messageType":"conversation","message":{"conversation":"Temos planos de assinatura também!"},"messageTimestamp":1743788965,"instanceId":"a471bc36-6909-4459-8656-7f8d020504b5","source":"unknown","contextInfo":null,"MessageUpdate":[]},{"id":"cm93a0u0a5hqqrv54xx82pq6a","key":{"id":"3EB00D175B868E9BB3FA690164C38CB6C22256C8","fromMe":true,"remoteJid":"558596466038@s.whatsapp.net"},"pushName":"","messageType":"imageMessage","message":{"imageMessage":{"url":"https://mmg.whatsapp.net/o1/v/t62.7118-24/f2/m232/AQOD05Hy1Nf4A05vWU6sRekPQsUSg4SwbhLt_jzg06VZeqjS1ozM4d_llG5Qd6LlRk5JJO0ymv_pxycJJ4HXpiuNmSV0ZTuYhXAd62RI7Q?ccb=9-4&oh=01_Q5AaIaIgSvN3GmOWW2zfUG1jdnuDxAtM1Aa_cTbNntxILsBI&oe=68178854&_nc_sid=e6ed6c&mms3=true","width":1227,"height":694,"mediaKey":"oPa7ehZipEWkS+13AXs2R60xVQieAcm0vKUZGza+EIY=","mimetype":"image/png","directPath":"/o1/v/t62.7118-24/f2/m232/AQOD05Hy1Nf4A05vWU6sRekPQsUSg4SwbhLt_jzg06VZeqjS1ozM4d_llG5Qd6LlRk5JJO0ymv_pxycJJ4HXpiuNmSV0ZTuYhXAd62RI7Q?ccb=9-4&oh=01_Q5AaIaIgSvN3GmOWW2zfUG1jdnuDxAtM1Aa_cTbNntxILsBI&oe=68178854&_nc_sid=e6ed6c","fileLength":"490132","fileSha256":"1YdODshL9ntsjukIJBY2ulomeZPGQ9W2Z4yQtd/v3ec=","fileEncSha256":"0nbSRJIxVRf6PKQ7cfNJOYRyf1fUuIV+pI8JAA7sAJE=","mediaKeyTimestamp":"1743788962"}},"messageTimestamp":1743788963,"instanceId":"a471bc36-6909-4459-8656-7f8d020504b5","source":"unknown","contextInfo":null,"MessageUpdate":[]},{"id":"cm93a0u0a5hqrrv54gihgkkz6","key":{"id":"3EB0A6D0248F2EF5E13230CC2F570CEAA853F174","fromMe":true,"remoteJid":"558596466038@s.whatsapp.net"},"pushName":"","messageType":"conversation","message":{"conversation":"*Perfis aquecidos com 2 BMS ja pronto pra ads* abaixo:"},"messageTimestamp":1743788961,"instanceId":"a471bc36-6909-4459-8656-7f8d020504b5","source":"unknown","contextInfo":null,"MessageUpdate":[]},{"id":"cm93a15ug5m7hrv545u2gpcw6","key":{"id":"3EB0E1A5367532691525DBD8FCE1EF9CE590AD30","fromMe":true,"remoteJid":"558596466038@s.whatsapp.net"},"pushName":"","messageType":"imageMessage","message":{"imageMessage":{"url":"https://mmg.whatsapp.net/o1/v/t62.7118-24/f2/m238/AQPNKwQEyXt_vV7fjOzt3H1XoUI_Qt58NHf7yvyhrVe9vfcmZ6mJW417El_HBAbuypid8WmqtvAwNWdv21e7YYNXQq-kintCNxqdZ7xA5Q?ccb=9-4&oh=01_Q5AaIS7ZKTsK9gJi_X2mbNMAAtepByMBG19bfoFr7UmrC1-o&oe=68179862&_nc_sid=e6ed6c&mms3=true","width":1220,"height":693,"mediaKey":"Xu5iB145TPeD4QdzKWuHGwquT2pYmxs9EBYMShazBGE=","mimetype":"image/png","directPath":"/o1/v/t62.7118-24/f2/m238/AQPNKwQEyXt_vV7fjOzt3H1XoUI_Qt58NHf7yvyhrVe9vfcmZ6mJW417El_HBAbuypid8WmqtvAwNWdv21e7YYNXQq-kintCNxqdZ7xA5Q?ccb=9-4&oh=01_Q5AaIS7ZKTsK9gJi_X2mbNMAAtepByMBG19bfoFr7UmrC1-o&oe=68179862&_nc_sid=e6ed6c","fileLength":"473298","fileSha256":"inb7dhtE/1Q37jwasBqqpAjmTnFxKhpCzECC5U6ELcQ=","fileEncSha256":"Er1Zg3/ArS/Wc0p3d2aPn84CkLGnMvko5o2pmG2szdc=","mediaKeyTimestamp":"1743788949"}},"messageTimestamp":1743788950,"instanceId":"a471bc36-6909-4459-8656-7f8d020504b5","source":"unknown","contextInfo":null,"MessageUpdate":[]},{"id":"cm93a15ug5m7irv54ob6oym33","key":{"id":"3EB0D76A8414561D06B5E880464C47B36230CCDA","fromMe":true,"remoteJid":"558596466038@s.whatsapp.net"},"pushName":"","messageType":"conversation","message":{"conversation":"*Perfis sem aquecimento aquece 15 dias* abaixo:"},"messageTimestamp":1743788948,"instanceId":"a471bc36-6909-4459-8656-7f8d020504b5","source":"unknown","contextInfo":null,"MessageUpdate":[]},{"id":"cm93a15ug5m7jrv54vtc4e9a9","key":{"id":"3EB03C36CA33337306168463F516BFE86E2EFA8B","fromMe":true,"remoteJid":"558596466038@s.whatsapp.net"},"pushName":"","messageType":"imageMessage","message":{"imageMessage":{"url":"https://mmg.whatsapp.net/o1/v/t62.7118-24/f2/m233/AQOw9DAOub6Uq97q9ormf5bt2aEj-dcrhNm5oOMOd688W1fo3LPeA3SEoDejhjTyJtZr3Uz8rsWOmUm8vUWxrSshChcW7NgzAZblTYP7Qg?ccb=9-4&oh=01_Q5AaIVkYR18oyWhlluBFH36V2pIehsUyFsFKagOa2Saj6AYT&oe=68179A59&_nc_sid=e6ed6c&mms3=true","width":1221,"height":695,"mediaKey":"H/emyiOHMrbu7EJMMNLzMHyaw5BThWWOaZUfGOTvBq4=","mimetype":"image/png","directPath":"/o1/v/t62.7118-24/f2/m233/AQOw9DAOub6Uq97q9ormf5bt2aEj-dcrhNm5oOMOd688W1fo3LPeA3SEoDejhjTyJtZr3Uz8rsWOmUm8vUWxrSshChcW7NgzAZblTYP7Qg?ccb=9-4&oh=01_Q5AaIVkYR18oyWhlluBFH36V2pIehsUyFsFKagOa2Saj6AYT&oe=68179A59&_nc_sid=e6ed6c","fileLength":"486944","fileSha256":"CS6GpqYg1xyvPpqPi9fuZ87EPwaiT99k+mMRzoBGLaI=","fileEncSha256":"u4MuUg0K1AdoECvTosU6fsytICn8q1AXokWdOM/aiQQ=","mediaKeyTimestamp":"1743788935"}},"messageTimestamp":1743788936,"instanceId":"a471bc36-6909-4459-8656-7f8d020504b5","source":"unknown","contextInfo":null,"MessageUpdate":[]},{"id":"cm93a15ug5m7krv54k30v3yjl","key":{"id":"3EB0DDDCE4BB8B43FCE143250C08C5B5557A180E","fromMe":true,"remoteJid":"558596466038@s.whatsapp.net"},"pushName":"","messageType":"conversation","message":{"conversation":"*Perfis Aquecidos pronto para anuncio* abaixo:"},"messageTimestamp":1743788934,"instanceId":"a471bc36-6909-4459-8656-7f8d020504b5","source":"unknown","contextInfo":null,"MessageUpdate":[]},{"id":"cm93a15ug5m7lrv54rj3wise9","key":{"id":"3EB055002838032B31B77002638A8962F7F3C6F4","fromMe":true,"remoteJid":"558596466038@s.whatsapp.net"},"pushName":"","messageType":"audioMessage","message":{"audioMessage":{"ptt":true,"url":"https://mmg.whatsapp.net/v/t62.7114-24/32573953_634359729421872_739836134856360284_n.enc?ccb=11-4&oh=01_Q5AaIQM0zOoa3hw9j5tEvE4oZHz-WsuYRLdlhaMUXF8B6rVQ&oe=681775D4&_nc_sid=5e03e0&mms3=true","seconds":23,"mediaKey":"IPiW/+dF4RN9wOmmJGqWoo+18iJPIRSjimwl15ucRS4=","mimetype":"audio/ogg; codecs=opus","waveform":"","directPath":"/v/t62.7114-24/32573953_634359729421872_739836134856360284_n.enc?ccb=11-4&oh=01_Q5AaIQM0zOoa3hw9j5tEvE4oZHz-WsuYRLdlhaMUXF8B6rVQ&oe=681775D4&_nc_sid=5e03e0","fileLength":"247379","fileSha256":"UH7N+HS9YlrM924O56dDUoumeVS3CsVAyK7Wyi4vbIM=","fileEncSha256":"WAMS7AinXKt9i2yPIeoU5G8BhAd7lfjXmJ0lMMWDDsU=","streamingSidecar":"","mediaKeyTimestamp":"1743788923"}},"messageTimestamp":1743788923,"instanceId":"a471bc36-6909-4459-8656-7f8d020504b5","source":"unknown","contextInfo":null,"MessageUpdate":[]},{"id":"cm93a15ug5m7mrv54qmy2lxna","key":{"id":"3EB0EE885D9E20869960B279BCEB6D3D03F158B5","fromMe":true,"remoteJid":"558596466038@s.whatsapp.net"},"pushName":"","messageType":"conversation","message":{"conversation":"beleza, Erick aqui"},"messageTimestamp":1743788910,"instanceId":"a471bc36-6909-4459-8656-7f8d020504b5","source":"unknown","contextInfo":null,"MessageUpdate":[]},{"id":"cm93a15uh5m7nrv5415bpmjfq","key":{"id":"3EB0DCAAE9BFFF87A65F4CFCAC836B0A474C8828","fromMe":true,"remoteJid":"558596466038@s.whatsapp.net"},"pushName":"","messageType":"conversation","message":{"conversation":"Transferindo..."},"messageTimestamp":1743788889,"instanceId":"a471bc36-6909-4459-8656-7f8d020504b5","source":"unknown","contextInfo":null,"MessageUpdate":[]},{"id":"cm93a15uh5m7orv54tv65eeqg","key":{"id":"3EB01EEA3C4ABDEB85C44466815E8E3EB2B57F8D","fromMe":true,"remoteJid":"558596466038@s.whatsapp.net"},"pushName":"","messageType":"conversation","message":{"conversation":"Salva nosso contato ai no seu telefone para mantermos contato🔥"},"messageTimestamp":1743788868,"instanceId":"a471bc36-6909-4459-8656-7f8d020504b5","source":"unknown","contextInfo":null,"MessageUpdate":[]},{"id":"cm93a15uh5m7prv54g3ci2ln3","key":{"id":"3EB0415FEEC9DECB9B4F7760DF4310EF35225814","fromMe":true,"remoteJid":"558596466038@s.whatsapp.net"},"pushName":"","messageType":"conversation","message":{"conversation":"Certo, Me chamo Vini sou do setor de suporte vou te transferir para um expecialista."},"messageTimestamp":1743788847,"instanceId":"a471bc36-6909-4459-8656-7f8d020504b5","source":"unknown","contextInfo":null,"MessageUpdate":[]},{"id":"cm93a15uh5m7qrv54t87it3cp","key":{"id":"CF7A8C2CC3E0DEC2C03C0EA2DD4D78FE","fromMe":false,"remoteJid":"558596466038@s.whatsapp.net"},"pushName":"","messageType":"conversation","message":{"conversation":"Gostaria de comprar uma bm pronta para anunciar","messageContextInfo":{"messageSecret":"Owg/n/Ssd9GaE+kmDL6AwyblLhqbKbOPMhbLfXslUh8="}},"messageTimestamp":1743788841,"instanceId":"a471bc36-6909-4459-8656-7f8d020504b5","source":"android","contextInfo":null,"MessageUpdate":[]},{"id":"cm93a15uh5m7rrv547zt263ex","key":{"id":"3EB07E4D12C72F63E26CF9A7F5E1E79C2FAE18A0","fromMe":true,"remoteJid":"558596466038@s.whatsapp.net"},"pushName":"","messageType":"conversation","message":{"conversation":"Como posso te ajudar"},"messageTimestamp":1743788821,"instanceId":"a471bc36-6909-4459-8656-7f8d020504b5","source":"unknown","contextInfo":null,"MessageUpdate":[]},{"id":"cm93a15uh5m7srv547h482a3d","key":{"id":"3EB0617FCE3712B0801A8DCE6A4D9D6ECF15BAD2","fromMe":true,"remoteJid":"558596466038@s.whatsapp.net"},"pushName":"","messageType":"conversation","message":{"conversation":"Opa! como vai?"},"messageTimestamp":1743788820,"instanceId":"a471bc36-6909-4459-8656-7f8d020504b5","source":"unknown","contextInfo":null,"MessageUpdate":[]},{"id":"cm93a15uh5m7trv54q54a7zbq","key":{"id":"1AB010448454DC64BD785EB1F632FDBB","fromMe":false,"remoteJid":"558596466038@s.whatsapp.net"},"pushName":"","messageType":"conversation","message":{"conversation":"Opaa!, eu quero comprar PERFIL e BM do facebook, me ajuda?","messageContextInfo":{"messageSecret":"wanfeq5qPgUzxp0BfRfagO4DtERXKnhKwHqPtDMGl3I="}},"messageTimestamp":1743788807,"instanceId":"a471bc36-6909-4459-8656-7f8d020504b5","source":"android","contextInfo":null,"MessageUpdate":[]},{"id":"cm93a0u0c5hr6rv54om7qgslp","key":{"id":"3A70D6BC3A84F4F11784","fromMe":false,"remoteJid":"559884913336@s.whatsapp.net"},"pushName":"","messageType":"conversation","message":{"conversation":"Não, é acesso da nova area de membros 🫡","messageContextInfo":{"messageSecret":"TspJG1hRpzcMMlerxHwyC/Fl65bE0PKQuuTzny1Au1s="}},"messageTimestamp":1743787049,"instanceId":"a471bc36-6909-4459-8656-7f8d020504b5","source":"ios","contextInfo":null,"MessageUpdate":[]},{"id":"cm93a0u0c5hr7rv546kc6d99k","key":{"id":"3EB0638F2F06F137043BAD","fromMe":true,"remoteJid":"559884913336@s.whatsapp.net"},"pushName":"","messageType":"conversation","message":{"conversation":"se for cancela pra min por favor","messageContextInfo":{"messageSecret":"diVxXGxplB5PoFDUEtRhbVjisu4eI2P7EmRhzcVZS3s="}},"messageTimestamp":1743786567,"instanceId":"a471bc36-6909-4459-8656-7f8d020504b5","source":"web","contextInfo":null,"MessageUpdate":[]},{"id":"cm93a0u0c5hr8rv54fknylg5h","key":{"id":"3EB089B0827100593DBB87","fromMe":true,"remoteJid":"559884913336@s.whatsapp.net"},"pushName":"","messageType":"conversation","message":{"conversation":"é assinatura?","messageContextInfo":{"messageSecret":"CtrYBKQufVcR0AXntnj6tK+tsx1sDBWc6IyplXI+QP0="}},"messageTimestamp":1743786546,"instanceId":"a471bc36-6909-4459-8656-7f8d020504b5","source":"web","contextInfo":null,"MessageUpdate":[]}]}}